module gitlab.com/hacks4oats/go-modlist

go 1.18

require (
	github.com/stretchr/testify v1.8.0
	golang.org/x/tools v0.1.12
)

require (
	github.com/davecgh/go-spew v1.1.1 // indirect
	github.com/pmezard/go-difflib v1.0.0 // indirect
	golang.org/x/mod v0.6.0-dev.0.20220419223038-86c51ed26bb4 // indirect
	golang.org/x/sys v0.0.0-20220722155257-8c9f86f7a55f // indirect
	gopkg.in/yaml.v3 v3.0.1 // indirect
)
